Assessment 3
…
mobile_recipe <- mobile_recipe %>%
  step_center(all_numeric(), -all_outcomes()) %>% 
  step_scale(all_numeric(), -all_outcomes()) %>% 
  step_corr(all_numeric())

mobile_prep <- prep(mobile_recipe, training = mobile_train)

mobile_bake <- bake(mobile_prep, mobile_train)

mobile_bake

## # A tibble: 4,707 x 3
##    gdp_per_cap continent mobile_subs
##          <dbl> <fct>           <dbl>
##  1       0.964 Africa         42.0  
##  2       1.07  Europe         28.8  
##  3      -0.771 Africa          0    
##  4      -0.764 Africa         36.5  
##  5      -0.185 Asia           60.2  
##  6       0.819 Europe          0.670
##  7      -0.416 Oceania        64.9  
##  8      NA     Europe         NA    
##  9      -0.659 Africa         79.9  
## 10      -0.590 Africa         32.4  
## # ... with 4,697 more rows
…
landline_recipe <- landline_recipe %>%
  step_center(all_numeric(), -all_outcomes()) %>% 
  step_scale(all_numeric(), -all_outcomes()) %>% 
  step_corr(all_numeric())

landline_prep <- prep(landline_recipe, training = landline_train)

landline_bake <- bake(landline_prep, landline_train)

landline_bake

## # A tibble: 5,230 x 3
##    gdp_per_cap continent landline_subs
##          <dbl> <fct>             <dbl>
##  1      -0.291 Americas         21.1  
##  2      -0.604 Asia              4.73 
##  3      -0.548 Asia              2.09 
##  4      NA     Oceania          13.1  
##  5      NA     Americas         NA    
##  6      -0.589 Asia              0.588
##  7       0.836 Europe           40.4  
##  8      NA     Europe           NA    
##  9      -0.409 Africa            7.33 
## 10       0.163 Africa           30.2  
## # ... with 5,220 more rows
…
